\relax 
\select@language{english}
\@writefile{toc}{\select@language{english}}
\@writefile{lof}{\select@language{english}}
\@writefile{lot}{\select@language{english}}
\@writefile{toc}{\contentsline {section}{\numberline {1}Advection-Diffusion scheme}{1}}
\newlabel{advdiff}{{1}{1}}
\@writefile{toc}{\contentsline {subsection}{\numberline {1.1}Proof that RK2 is in a 2nd order scheme in time}{1}}
\@writefile{toc}{\contentsline {subsection}{\numberline {1.2}Numerical implementation}{1}}
\newlabel{discretadvdiff}{{2}{2}}
\@writefile{toc}{\contentsline {subsection}{\numberline {1.3}Error scheme}{2}}
\@writefile{lof}{\contentsline {figure}{\numberline {1}{\ignorespaces Representation of this error of our approximation solution}}{3}}
\@writefile{toc}{\contentsline {section}{\numberline {2}LDC scheme}{4}}
\newlabel{systeme}{{3}{4}}
\newlabel{solAnalytique}{{4}{4}}
\@writefile{toc}{\contentsline {subsection}{\numberline {2.1}Exercise 1: finite difference method order 2}{4}}
\@writefile{toc}{\contentsline {subsubsection}{\numberline {2.1.1}Discretization of u}{4}}
\@writefile{toc}{\contentsline {subsubsection}{\numberline {2.1.2}Numerical resolution}{4}}
\@writefile{toc}{\contentsline {subsection}{\numberline {2.2}Exercise 2: LDC scheme}{5}}
\@writefile{lof}{\contentsline {figure}{\numberline {2}{\ignorespaces Representation of LDC scheme}}{5}}
