\relax 
\catcode `:\active 
\catcode `;\active 
\catcode `!\active 
\catcode `?\active 
\select@language{french}
\@writefile{toc}{\select@language{french}}
\@writefile{lof}{\select@language{french}}
\@writefile{lot}{\select@language{french}}
\@writefile{toc}{\contentsline {section}{\numberline {1}Observations lacunaires de la hauteur en fonction du d\IeC {\'e}bit}{1}}
\@writefile{toc}{\contentsline {subsection}{\numberline {1.1}Estimation de la hauteur de digue \IeC {\`a} partir des seules donn\IeC {\'e}es de hauteur d'eau}{1}}
\@writefile{toc}{\contentsline {subsection}{\numberline {1.2}Mod\IeC {\'e}lisation de la liaison entre d\IeC {\'e}bit et hauteur d'eau}{2}}
\@writefile{toc}{\contentsline {subsubsection}{\numberline {1.2.1}Relation entre le d\IeC {\'e}bit $Q_i$ et la hauteur $H_i$}{2}}
\newlabel{modelDebHaut}{{1}{2}}
\@writefile{toc}{\contentsline {subsubsection}{\numberline {1.2.2}D\IeC {\'e}termination des constantes $\alpha $ et $\beta $ de notre mod\IeC {\`e}le}{2}}
\newlabel{modelDebHautlin}{{2}{2}}
\@writefile{toc}{\contentsline {subsection}{\numberline {1.3}hauteur de digue pr\IeC {\'e}conis\IeC {\'e}e}{3}}
\@writefile{toc}{\contentsline {section}{\numberline {2}Mod\IeC {\`e}le physique de hauteur d'eau}{3}}
\@writefile{toc}{\contentsline {subsection}{\numberline {2.1}Loi de probabilit\IeC {\'e} des d\IeC {\'e}bits et de l'incertitude sur les param\IeC {\`e}tres du mod\IeC {\`e}le}{3}}
