%!PS-Adobe-1.0
%%Creator: Cast3m - CEA/DEN/DM2S/SEMT
%%BoundingBox: 0 0 593 841
%%Orientation: Landscape
200 dict begin
/StartPage{/sv save def}def
/EndPage{showpage sv restore}def
1 setlinecap 0 setlinejoin
 1 setlinewidth
/CM4 { 0.04 div } def
/NP { newpath } def
/MV { moveto } def
/LN { lineto } def
/SK { stroke } def
/FI { fill   } def
/S  { show   } def
/CN { 1.     setgray } def
/DL{NP MV {LN}repeat SK } def
/DS{NP MV {LN}repeat FI } def
/H0{.1 .1 scale}def
/H1{10 10 scale}def
/CX4{0.004 div} def
/MX{moveto H1} def
/SX {show H0} def
/center {stringwidth pop 2 div neg 0 rmoveto} def
/right {stringwidth pop neg 0 rmoveto} def
/C0 { 1.     setgray } def
/C4 { 0.333  setgray } def
/CC { 0.333  setgray } def
/C2 { 0.666  setgray } def
/C8 { 0.333  setgray } def
/C6 { 0.633  setgray } def
/CA { 0.666  setgray } def
/CE { 1.000  setgray } def
/CF { 0.000  setgray } def
/C3 { 0.469  setgray } def
/CB { 0.549  setgray } def
/C1 { 0.560  setgray } def
/C7 { 0.460  setgray } def
/C5 { 0.772  setgray } def
/C9 { 0.534  setgray } def
/CD { 0.827  setgray } def
/CG { 0.501  setgray } def
/CH { 0.296  setgray } def
/CI { 0.321  setgray } def
/CJ { 0.603  setgray } def
/CK { 0.844  setgray } def
/CM { 0.614  setgray } def
/CN { 0.167  setgray } def
/CO { 0.130  setgray } def
/CP { 0.620  setgray } def
/CQ { 0.928  setgray } def
/CR { 0.542  setgray } def
/CT { 0.797  setgray } def
/CU { 0.823  setgray } def
/CV { 0.524  setgray } def
/CW { 0.294  setgray } def
/CX { 0.52   setgray } def
/c1 { 0.98  setgray } def
/c3 { 0.95  setgray } def
/c5 { 0.91  setgray } def
/c7 { 0.86  setgray } def
/c9 { 0.80  setgray } def
/cB { 0.73  setgray } def
/cD { 0.65  setgray } def
/cF { 0.56  setgray } def
/c2 { 0.965 setgray } def
/c4 { 0.93  setgray } def
/c6 { 0.885 setgray } def
/c8 { 0.83  setgray } def
/cA { 0.765 setgray } def
/cC { 0.69  setgray } def
/cE { 0.605 setgray } def
/cG { 0.52  setgray } def
/DN { 0.0000 0.0000 0.0000 setrgbcolor } def % black
/D0 { 0.0000 0.0000 0.0000 setrgbcolor } def % NOIR
/D4 { 0.0000 0.0000 1.0000 setrgbcolor } def % BLEU
/DC { 1.0000 0.0000 0.0000 setrgbcolor } def % ROUGe
/D2 { 1.0000 0.0000 1.0000 setrgbcolor } def % ROSE
/D8 { 0.0000 1.0000 0.0000 setrgbcolor } def % VERT
/D6 { 0.0000 0.8078 0.8196 setrgbcolor } def % TURQuoi
/DA { 1.0000 1.0000 0.0000 setrgbcolor } def % JAUNe
/DE { 1.0000 1.0000 1.0000 setrgbcolor } def % BLANc
/DF { 0.0000 0.0000 0.0000 setrgbcolor } def % NOIR
/D3 { 0.5804 0.0000 0.8274 setrgbcolor } def % VIOLet
/DB { 1.0000 0.6471 0.0000 setrgbcolor } def % ORANge
/D1 { 0.1176 0.5647 1.0000 setrgbcolor } def % AZUR
/D7 { 0.2353 0.7020 0.4431 setrgbcolor } def % OCEAn
/D5 { 0.5294 0.8078 0.9804 setrgbcolor } def % CYAN
/D9 { 0.6039 0.8039 0.1961 setrgbcolor } def % OLIVe
/DD { 0.7450 0.7450 0.7450 setrgbcolor } def % GRIS 
/DG { 0.8157 0.1255 0.5647 setrgbcolor } def % POURpre
/DH { 0.5451 0.2706 0.0745 setrgbcolor } def % BRUN
/DI { 0.6980 0.1333 0.1333 setrgbcolor } def % BRIQue
/DJ { 1.0000 0.5000 0.3137 setrgbcolor } def % CORAil
/DK { 0.9607 0.8706 0.7019 setrgbcolor } def % BEIGe
/DM { 1.0000 0.8431 0.0000 setrgbcolor } def % OR
/DN { 0.0000 0.0000 0.5000 setrgbcolor } def % MARIne
/DO { 0.0000 0.3921 0.0000 setrgbcolor } def % BOUTeil
/DP { 0.5000 1.0000 0.0000 setrgbcolor } def % LIME
/DQ { 0.9019 0.9019 0.9803 setrgbcolor } def % LAVAnde
/DR { 0.8549 0.6470 0.1254 setrgbcolor } def % BRONze
/DT { 0.9411 0.9019 0.5490 setrgbcolor } def % KAKI
/DU { 1.0000 0.7137 0.7568 setrgbcolor } def % PEAU
/DV { 0.8039 0.5215 0.2470 setrgbcolor } def % CARAmel
/DW { 0.2941 0.0000 0.5882 setrgbcolor } def % INDIgo
/DX { 0.0000 0.0000 0.0000 setrgbcolor } def % pas uti
/d1 { 0.0000 0.0000 1.0000 setrgbcolor } def %
/d3 { 0.0000 0.6078 1.0000 setrgbcolor } def %
/d5 { 0.0000 0.9333 1.0000 setrgbcolor } def %
/d7 { 0.0000 1.0000 0.6078 setrgbcolor } def %
/d9 { 0.7058 1.0000 0.0000 setrgbcolor } def %
/dB { 1.0000 0.9333 0.0000 setrgbcolor } def %
/dD { 1.0000 0.6078 0.0000 setrgbcolor } def %
/dF { 1.0000 0.0000 0.0000 setrgbcolor } def %
/d2 { 0.0000 0.3490 1.0000 setrgbcolor } def %
/d4 { 0.0000 0.7882 1.0000 setrgbcolor } def %
/d6 { 0.0000 1.0000 0.7882 setrgbcolor } def %
/d8 { 0.6078 1.0000 0.0000 setrgbcolor } def %
/dA { 1.0000 1.0000 0.0000 setrgbcolor } def %
/dC { 1.0000 0.7882 0.0000 setrgbcolor } def %
/dE { 1.0000 0.3490 0.0000 setrgbcolor } def %
/dG { 0.0000 0.0000 0.0000 setrgbcolor } def %
/Courier findfont
dup length dict begin
   {1 index /FID ne {def} {pop pop} ifelse} forall
   /Encoding ISOLatin1Encoding def
   currentdict
end
/Courier-ISOLatin1 exch definefont 14 scalefont setfont
23 CM4  1 CM4 translate 90 rotate
%%EndProlog
%%Page:     1     1
StartPage
H0
0. CX4 0. CX4 MX
(MAILLAGE) SX
D0
 506  581  506 1601  506 2621  506 3640  506 4660 1526 4660 2546 4660 3565 4660 4585 4660 4585 3640 4585 2621 4585 1601 4585  581 3565  581 3565 1601
15 4585 1601 DL
 506  581 1526  581 1526 1601 1526 2621 1526 3640
 5 1526 4660 DL
1526  581 2546  581 2546 1601 2546 2621 2546 3640
 5 2546 4660 DL
2546  581
 1 3565  581 DL
 506 1601 1526 1601 2546 1601 3565 1601 3565 2621
 5 4585 2621 DL
 506 2621 1526 2621 2546 2621 3565 2621 3565 3640
 5 3565 4660 DL
 506 3640 1526 3640 2546 3640 3565 3640
 4 4585 3640 DL
D4
DC
D2
D8
D6
DA
DE
DF
D3
DB
D1
D7
D5
D9
DD
DG
DH
DI
DJ
DK
DM
DN
DO
DP
DQ
DR
DT
DU
DV
DW
EndPage
